2.00000000000000000000000000000000e+00	2.55000000000000000000000000000000e+02	2.55000000000000000000000000000000e+02	7.65000000000000000000000000000000e+02	131635
2.00000000000000000000000000000000e+00	2.55000000000000000000000000000000e+02	0.00000000000000000000000000000000e+00	5.10000000000000000000000000000000e+02	129299
2.00000000000000000000000000000000e+00	0.00000000000000000000000000000000e+00	0.00000000000000000000000000000000e+00	0.00000000000000000000000000000000e+00	121889
2.00000000000000000000000000000000e+00	2.53000000000000000000000000000000e+02	2.53000000000000000000000000000000e+02	7.59000000000000000000000000000000e+02	19023
2.00000000000000000000000000000000e+00	2.53000000000000000000000000000000e+02	0.00000000000000000000000000000000e+00	5.06000000000000000000000000000000e+02	18592
2.00000000000000000000000000000000e+00	1.00000000000000000000000000000000e+00	0.00000000000000000000000000000000e+00	2.00000000000000000000000000000000e+00	1964
2.00000000000000000000000000000000e+00	0.00000000000000000000000000000000e+00	1.00000000000000000000000000000000e+00	1.00000000000000000000000000000000e+00	1592
2.00000000000000000000000000000000e+00	2.55000000000000000000000000000000e+02	2.54000000000000000000000000000000e+02	7.64000000000000000000000000000000e+02	1179
2.00000000000000000000000000000000e+00	2.54000000000000000000000000000000e+02	2.55000000000000000000000000000000e+02	7.63000000000000000000000000000000e+02	1140
2.00000000000000000000000000000000e+00	2.55000000000000000000000000000000e+02	1.00000000000000000000000000000000e+00	5.11000000000000000000000000000000e+02	1136
2.00000000000000000000000000000000e+00	2.54000000000000000000000000000000e+02	0.00000000000000000000000000000000e+00	5.08000000000000000000000000000000e+02	1040
2.00000000000000000000000000000000e+00	2.54000000000000000000000000000000e+02	2.54000000000000000000000000000000e+02	7.62000000000000000000000000000000e+02	764
2.00000000000000000000000000000000e+00	2.55000000000000000000000000000000e+02	-1.00000000000000000000000000000000e+00	5.09000000000000000000000000000000e+02	749
2.00000000000000000000000000000000e+00	2.55000000000000000000000000000000e+02	2.00000000000000000000000000000000e+00	5.12000000000000000000000000000000e+02	631
2.00000000000000000000000000000000e+00	2.53000000000000000000000000000000e+02	2.52000000000000000000000000000000e+02	7.58000000000000000000000000000000e+02	497
2.00000000000000000000000000000000e+00	2.52000000000000000000000000000000e+02	2.53000000000000000000000000000000e+02	7.57000000000000000000000000000000e+02	493
2.00000000000000000000000000000000e+00	2.55000000000000000000000000000000e+02	2.53000000000000000000000000000000e+02	7.63000000000000000000000000000000e+02	485
2.00000000000000000000000000000000e+00	2.53000000000000000000000000000000e+02	2.55000000000000000000000000000000e+02	7.61000000000000000000000000000000e+02	479
2.00000000000000000000000000000000e+00	2.53000000000000000000000000000000e+02	2.54000000000000000000000000000000e+02	7.60000000000000000000000000000000e+02	464
2.00000000000000000000000000000000e+00	2.53000000000000000000000000000000e+02	-1.00000000000000000000000000000000e+00	5.05000000000000000000000000000000e+02	438
2.00000000000000000000000000000000e+00	2.00000000000000000000000000000000e+00	2.00000000000000000000000000000000e+00	6.00000000000000000000000000000000e+00	434
2.00000000000000000000000000000000e+00	2.54000000000000000000000000000000e+02	2.53000000000000000000000000000000e+02	7.61000000000000000000000000000000e+02	430
2.00000000000000000000000000000000e+00	2.52000000000000000000000000000000e+02	2.55000000000000000000000000000000e+02	7.59000000000000000000000000000000e+02	330
2.00000000000000000000000000000000e+00	4.00000000000000000000000000000000e+00	0.00000000000000000000000000000000e+00	8.00000000000000000000000000000000e+00	326
2.00000000000000000000000000000000e+00	3.00000000000000000000000000000000e+00	2.00000000000000000000000000000000e+00	8.00000000000000000000000000000000e+00	318
2.00000000000000000000000000000000e+00	2.00000000000000000000000000000000e+00	3.00000000000000000000000000000000e+00	7.00000000000000000000000000000000e+00	288
2.00000000000000000000000000000000e+00	3.00000000000000000000000000000000e+00	3.00000000000000000000000000000000e+00	9.00000000000000000000000000000000e+00	271
2.00000000000000000000000000000000e+00	4.00000000000000000000000000000000e+00	2.00000000000000000000000000000000e+00	1.00000000000000000000000000000000e+01	245
2.00000000000000000000000000000000e+00	2.54000000000000000000000000000000e+02	-2.00000000000000000000000000000000e+00	5.06000000000000000000000000000000e+02	239
2.00000000000000000000000000000000e+00	1.00000000000000000000000000000000e+00	3.00000000000000000000000000000000e+00	5.00000000000000000000000000000000e+00	232
2.00000000000000000000000000000000e+00	6.00000000000000000000000000000000e+00	0.00000000000000000000000000000000e+00	1.20000000000000000000000000000000e+01	208
2.00000000000000000000000000000000e+00	2.53000000000000000000000000000000e+02	2.50000000000000000000000000000000e+02	7.56000000000000000000000000000000e+02	206
2.00000000000000000000000000000000e+00	2.52000000000000000000000000000000e+02	1.00000000000000000000000000000000e+00	5.05000000000000000000000000000000e+02	189
2.00000000000000000000000000000000e+00	4.00000000000000000000000000000000e+00	3.00000000000000000000000000000000e+00	1.10000000000000000000000000000000e+01	187
2.00000000000000000000000000000000e+00	2.50000000000000000000000000000000e+02	2.53000000000000000000000000000000e+02	7.53000000000000000000000000000000e+02	182
2.00000000000000000000000000000000e+00	2.00000000000000000000000000000000e+00	4.00000000000000000000000000000000e+00	8.00000000000000000000000000000000e+00	173
2.00000000000000000000000000000000e+00	2.50000000000000000000000000000000e+02	2.52000000000000000000000000000000e+02	7.52000000000000000000000000000000e+02	171
2.00000000000000000000000000000000e+00	5.00000000000000000000000000000000e+00	4.00000000000000000000000000000000e+00	1.40000000000000000000000000000000e+01	167
2.00000000000000000000000000000000e+00	5.00000000000000000000000000000000e+00	3.00000000000000000000000000000000e+00	1.30000000000000000000000000000000e+01	160
2.00000000000000000000000000000000e+00	3.00000000000000000000000000000000e+00	4.00000000000000000000000000000000e+00	1.00000000000000000000000000000000e+01	159
2.00000000000000000000000000000000e+00	5.00000000000000000000000000000000e+00	2.00000000000000000000000000000000e+00	1.20000000000000000000000000000000e+01	149
2.00000000000000000000000000000000e+00	2.54000000000000000000000000000000e+02	2.49000000000000000000000000000000e+02	7.57000000000000000000000000000000e+02	147
2.00000000000000000000000000000000e+00	4.00000000000000000000000000000000e+00	4.00000000000000000000000000000000e+00	1.20000000000000000000000000000000e+01	146
2.00000000000000000000000000000000e+00	5.00000000000000000000000000000000e+00	1.00000000000000000000000000000000e+00	1.10000000000000000000000000000000e+01	144
2.00000000000000000000000000000000e+00	3.00000000000000000000000000000000e+00	5.00000000000000000000000000000000e+00	1.10000000000000000000000000000000e+01	140
2.00000000000000000000000000000000e+00	0.00000000000000000000000000000000e+00	1.00000000000000000000000000000000e+01	1.00000000000000000000000000000000e+01	134
2.00000000000000000000000000000000e+00	6.00000000000000000000000000000000e+00	2.00000000000000000000000000000000e+00	1.40000000000000000000000000000000e+01	134
2.00000000000000000000000000000000e+00	2.00000000000000000000000000000000e+00	6.00000000000000000000000000000000e+00	1.00000000000000000000000000000000e+01	133
2.00000000000000000000000000000000e+00	6.00000000000000000000000000000000e+00	3.00000000000000000000000000000000e+00	1.50000000000000000000000000000000e+01	131
2.00000000000000000000000000000000e+00	6.00000000000000000000000000000000e+00	1.00000000000000000000000000000000e+00	1.30000000000000000000000000000000e+01	124
2.00000000000000000000000000000000e+00	4.00000000000000000000000000000000e+00	5.00000000000000000000000000000000e+00	1.30000000000000000000000000000000e+01	109
2.00000000000000000000000000000000e+00	6.00000000000000000000000000000000e+00	4.00000000000000000000000000000000e+00	1.60000000000000000000000000000000e+01	109
2.00000000000000000000000000000000e+00	4.00000000000000000000000000000000e+00	6.00000000000000000000000000000000e+00	1.40000000000000000000000000000000e+01	106
2.00000000000000000000000000000000e+00	5.00000000000000000000000000000000e+00	5.00000000000000000000000000000000e+00	1.50000000000000000000000000000000e+01	103
2.00000000000000000000000000000000e+00	2.55000000000000000000000000000000e+02	-5.00000000000000000000000000000000e+00	5.05000000000000000000000000000000e+02	100
2.00000000000000000000000000000000e+00	2.50000000000000000000000000000000e+02	2.00000000000000000000000000000000e+00	5.02000000000000000000000000000000e+02	99
2.00000000000000000000000000000000e+00	3.00000000000000000000000000000000e+00	7.00000000000000000000000000000000e+00	1.30000000000000000000000000000000e+01	98
2.00000000000000000000000000000000e+00	2.49000000000000000000000000000000e+02	-2.00000000000000000000000000000000e+00	4.96000000000000000000000000000000e+02	93
2.00000000000000000000000000000000e+00	1.10000000000000000000000000000000e+01	0.00000000000000000000000000000000e+00	2.20000000000000000000000000000000e+01	89
2.00000000000000000000000000000000e+00	6.00000000000000000000000000000000e+00	6.00000000000000000000000000000000e+00	1.80000000000000000000000000000000e+01	85
2.00000000000000000000000000000000e+00	2.47000000000000000000000000000000e+02	2.53000000000000000000000000000000e+02	7.47000000000000000000000000000000e+02	82
2.00000000000000000000000000000000e+00	6.00000000000000000000000000000000e+00	5.00000000000000000000000000000000e+00	1.70000000000000000000000000000000e+01	68
2.00000000000000000000000000000000e+00	2.47000000000000000000000000000000e+02	1.00000000000000000000000000000000e+00	4.95000000000000000000000000000000e+02	68
2.00000000000000000000000000000000e+00	1.00000000000000000000000000000000e+00	7.00000000000000000000000000000000e+00	9.00000000000000000000000000000000e+00	66
2.00000000000000000000000000000000e+00	9.00000000000000000000000000000000e+00	3.00000000000000000000000000000000e+00	2.10000000000000000000000000000000e+01	57
2.00000000000000000000000000000000e+00	9.00000000000000000000000000000000e+00	5.00000000000000000000000000000000e+00	2.30000000000000000000000000000000e+01	57
2.00000000000000000000000000000000e+00	1.60000000000000000000000000000000e+01	0.00000000000000000000000000000000e+00	3.20000000000000000000000000000000e+01	52
2.00000000000000000000000000000000e+00	3.00000000000000000000000000000000e+00	-4.00000000000000000000000000000000e+00	2.00000000000000000000000000000000e+00	50
2.00000000000000000000000000000000e+00	2.49000000000000000000000000000000e+02	2.47000000000000000000000000000000e+02	7.45000000000000000000000000000000e+02	46
2.00000000000000000000000000000000e+00	9.00000000000000000000000000000000e+00	1.00000000000000000000000000000000e+01	2.80000000000000000000000000000000e+01	43
2.00000000000000000000000000000000e+00	1.20000000000000000000000000000000e+01	6.00000000000000000000000000000000e+00	3.00000000000000000000000000000000e+01	38
2.00000000000000000000000000000000e+00	7.00000000000000000000000000000000e+00	7.00000000000000000000000000000000e+00	2.10000000000000000000000000000000e+01	33
2.00000000000000000000000000000000e+00	2.47000000000000000000000000000000e+02	2.00000000000000000000000000000000e+00	4.96000000000000000000000000000000e+02	30
2.00000000000000000000000000000000e+00	1.00000000000000000000000000000000e+01	5.00000000000000000000000000000000e+00	2.50000000000000000000000000000000e+01	29
2.00000000000000000000000000000000e+00	7.00000000000000000000000000000000e+00	9.00000000000000000000000000000000e+00	2.30000000000000000000000000000000e+01	25
2.00000000000000000000000000000000e+00	7.00000000000000000000000000000000e+00	1.20000000000000000000000000000000e+01	2.60000000000000000000000000000000e+01	20
2.00000000000000000000000000000000e+00	3.00000000000000000000000000000000e+00	-9.00000000000000000000000000000000e+00	-3.00000000000000000000000000000000e+00	20
2.00000000000000000000000000000000e+00	9.00000000000000000000000000000000e+00	-1.00000000000000000000000000000000e+00	1.70000000000000000000000000000000e+01	19
2.00000000000000000000000000000000e+00	8.00000000000000000000000000000000e+00	-5.00000000000000000000000000000000e+00	1.10000000000000000000000000000000e+01	18
2.00000000000000000000000000000000e+00	2.42000000000000000000000000000000e+02	0.00000000000000000000000000000000e+00	4.84000000000000000000000000000000e+02	17
2.00000000000000000000000000000000e+00	2.44000000000000000000000000000000e+02	3.00000000000000000000000000000000e+00	4.91000000000000000000000000000000e+02	17
2.00000000000000000000000000000000e+00	0.00000000000000000000000000000000e+00	5.70000000000000000000000000000000e+01	5.70000000000000000000000000000000e+01	17
2.00000000000000000000000000000000e+00	0.00000000000000000000000000000000e+00	6.80000000000000000000000000000000e+01	6.80000000000000000000000000000000e+01	11
2.00000000000000000000000000000000e+00	2.54000000000000000000000000000000e+02	2.08000000000000000000000000000000e+02	7.16000000000000000000000000000000e+02	10
2.00000000000000000000000000000000e+00	2.04000000000000000000000000000000e+02	2.55000000000000000000000000000000e+02	6.63000000000000000000000000000000e+02	9
2.00000000000000000000000000000000e+00	0.00000000000000000000000000000000e+00	4.40000000000000000000000000000000e+01	4.40000000000000000000000000000000e+01	4
2.00000000000000000000000000000000e+00	1.46000000000000000000000000000000e+02	2.04000000000000000000000000000000e+02	4.96000000000000000000000000000000e+02	3
2.00000000000000000000000000000000e+00	1.01000000000000000000000000000000e+02	1.46000000000000000000000000000000e+02	3.48000000000000000000000000000000e+02	3
2.00000000000000000000000000000000e+00	7.80000000000000000000000000000000e+01	1.01000000000000000000000000000000e+02	2.57000000000000000000000000000000e+02	3
2.00000000000000000000000000000000e+00	4.40000000000000000000000000000000e+01	7.80000000000000000000000000000000e+01	1.66000000000000000000000000000000e+02	3
2.00000000000000000000000000000000e+00	1.00000000000000000000000000000000e+01	4.40000000000000000000000000000000e+01	6.40000000000000000000000000000000e+01	3
2.00000000000000000000000000000000e+00	5.10000000000000000000000000000000e+01	1.60000000000000000000000000000000e+01	1.18000000000000000000000000000000e+02	3
2.00000000000000000000000000000000e+00	7.80000000000000000000000000000000e+01	5.10000000000000000000000000000000e+01	2.07000000000000000000000000000000e+02	3
2.00000000000000000000000000000000e+00	9.90000000000000000000000000000000e+01	7.80000000000000000000000000000000e+01	2.76000000000000000000000000000000e+02	3
2.00000000000000000000000000000000e+00	1.48000000000000000000000000000000e+02	9.90000000000000000000000000000000e+01	3.95000000000000000000000000000000e+02	3
2.00000000000000000000000000000000e+00	2.08000000000000000000000000000000e+02	1.48000000000000000000000000000000e+02	5.64000000000000000000000000000000e+02	3
2.00000000000000000000000000000000e+00	1.84000000000000000000000000000000e+02	0.00000000000000000000000000000000e+00	3.68000000000000000000000000000000e+02	3
2.00000000000000000000000000000000e+00	1.02000000000000000000000000000000e+02	5.10000000000000000000000000000000e+01	2.55000000000000000000000000000000e+02	3
2.00000000000000000000000000000000e+00	6.20000000000000000000000000000000e+01	1.09000000000000000000000000000000e+02	2.33000000000000000000000000000000e+02	3
2.00000000000000000000000000000000e+00	3.70000000000000000000000000000000e+01	1.03000000000000000000000000000000e+02	1.77000000000000000000000000000000e+02	3
