1.00000000000000000000000000000000e+00	1.00000000000000000000000000000000e+00	3740
2.00000000000000000000000000000000e+00	1.41421353816986083984375000000000e+00	3508
2.50000000000000000000000000000000e+00	1.58113884925842285156250000000000e+00	3122
1.25000000000000000000000000000000e+00	1.11803400516510009765625000000000e+00	1679
1.62500000000000000000000000000000e+00	1.27475488185882568359375000000000e+00	1336
3.12500000000000000000000000000000e+00	1.76776695251464843750000000000000e+00	1305
2.12500000000000000000000000000000e+00	1.45773792266845703125000000000000e+00	1013
4.50000000000000000000000000000000e+00	2.12132024765014648437500000000000e+00	850
1.56250000000000000000000000000000e+00	1.25000000000000000000000000000000e+00	813
2.03125000000000000000000000000000e+00	1.42521929740905761718750000000000e+00	782
3.62500000000000000000000000000000e+00	1.90394330024719238281250000000000e+00	752
2.25000000000000000000000000000000e+00	1.50000000000000000000000000000000e+00	722
3.25000000000000000000000000000000e+00	1.80277562141418457031250000000000e+00	712
1.28125000000000000000000000000000e+00	1.13192319869995117187500000000000e+00	659
1.90625000000000000000000000000000e+00	1.38067007064819335937500000000000e+00	509
1.40625000000000000000000000000000e+00	1.18585407733917236328125000000000e+00	491
3.90625000000000000000000000000000e+00	1.97642350196838378906250000000000e+00	452
1.81250000000000000000000000000000e+00	1.34629118442535400390625000000000e+00	428
2.31250000000000000000000000000000e+00	1.52069067955017089843750000000000e+00	385
2.28125000000000000000000000000000e+00	1.51038074493408203125000000000000e+00	317
3.65625000000000000000000000000000e+00	1.91213226318359375000000000000000e+00	303
3.03125000000000000000000000000000e+00	1.74104857444763183593750000000000e+00	290
3.31250000000000000000000000000000e+00	1.82002747058868408203125000000000e+00	263
1.13281250000000000000000000000000e+00	1.06433665752410888671875000000000e+00	240
1.60156250000000000000000000000000e+00	1.26552855968475341796875000000000e+00	232
6.12500000000000000000000000000000e+00	2.47487378120422363281250000000000e+00	231
3.40625000000000000000000000000000e+00	1.84560286998748779296875000000000e+00	229
1.01562500000000000000000000000000e+00	1.00778222084045410156250000000000e+00	223
1.16406250000000000000000000000000e+00	1.07891726493835449218750000000000e+00	215
3.15625000000000000000000000000000e+00	1.77658379077911376953125000000000e+00	201
1.32812500000000000000000000000000e+00	1.15244305133819580078125000000000e+00	196
4.53125000000000000000000000000000e+00	2.12867331504821777343750000000000e+00	188
2.07031250000000000000000000000000e+00	1.43885803222656250000000000000000e+00	185
1.22656250000000000000000000000000e+00	1.10750281810760498046875000000000e+00	177
4.06250000000000000000000000000000e+00	2.01556444168090820312500000000000e+00	173
1.41406250000000000000000000000000e+00	1.18914365768432617187500000000000e+00	173
1.95312500000000000000000000000000e+00	1.39754247665405273437500000000000e+00	165
1.50781250000000000000000000000000e+00	1.22793018817901611328125000000000e+00	157
2.53125000000000000000000000000000e+00	1.59099030494689941406250000000000e+00	151
3.32031250000000000000000000000000e+00	1.82217252254486083984375000000000e+00	133
1.70312500000000000000000000000000e+00	1.30503833293914794921875000000000e+00	131
2.25781250000000000000000000000000e+00	1.50260186195373535156250000000000e+00	116
6.15625000000000000000000000000000e+00	2.48117923736572265625000000000000e+00	101
2.89062500000000000000000000000000e+00	1.70018386840820312500000000000000e+00	96
2.39062500000000000000000000000000e+00	1.54616463184356689453125000000000e+00	94
2.03906250000000000000000000000000e+00	1.42795741558074951171875000000000e+00	89
2.10156250000000000000000000000000e+00	1.44967663288116455078125000000000e+00	74
3.51562500000000000000000000000000e+00	1.87500000000000000000000000000000e+00	61
3.16406250000000000000000000000000e+00	1.77878117561340332031250000000000e+00	55
4.22656250000000000000000000000000e+00	2.05586051940917968750000000000000e+00	45
1.09765625000000000000000000000000e+00	1.04769086837768554687500000000000e+00	40
3.72656250000000000000000000000000e+00	1.93043065071105957031250000000000e+00	39
3.19531250000000000000000000000000e+00	1.78754365444183349609375000000000e+00	32
3.50781250000000000000000000000000e+00	1.87291550636291503906250000000000e+00	25
2.54882812500000000000000000000000e+00	1.59650492668151855468750000000000e+00	20
2.42382812500000000000000000000000e+00	1.55686485767364501953125000000000e+00	19
1.33056640625000000000000000000000e+00	1.15350174903869628906250000000000e+00	12
2.97070312500000000000000000000000e+00	1.72357273101806640625000000000000e+00	10
2.73144531250000000000000000000000e+00	1.65270853042602539062500000000000e+00	9
4.12597656250000000000000000000000e+00	2.03125000000000000000000000000000e+00	7
1.72973632812500000000000000000000e+00	1.31519436836242675781250000000000e+00	6
7.50976562500000000000000000000000e+00	2.74039506912231445312500000000000e+00	6
3.91135406494140625000000000000000e+00	1.97771430015563964843750000000000e+00	6
2.76586914062500000000000000000000e+00	1.66309022903442382812500000000000e+00	6
1.69238281250000000000000000000000e+00	1.30091619491577148437500000000000e+00	5
2.13050842285156250000000000000000e+00	1.45962607860565185546875000000000e+00	4
2.89923095703125000000000000000000e+00	1.70271277427673339843750000000000e+00	3
1.94824981689453125000000000000000e+00	1.39579725265502929687500000000000e+00	3
3.12403106689453125000000000000000e+00	1.76749289035797119140625000000000e+00	3
3.96518707275390625000000000000000e+00	1.99127769470214843750000000000000e+00	3
3.70682525634765625000000000000000e+00	1.92531168460845947265625000000000e+00	3
2.68787384033203125000000000000000e+00	1.63947367668151855468750000000000e+00	3
1.39154815673828125000000000000000e+00	1.17963898181915283203125000000000e+00	3
2.40338134765625000000000000000000e+00	1.55028426647186279296875000000000e+00	3
1.17883300781250000000000000000000e+00	1.08574080467224121093750000000000e+00	3
2.71191406250000000000000000000000e+00	1.64678907394409179687500000000000e+00	3
2.37658691406250000000000000000000e+00	1.54161822795867919921875000000000e+00	3
2.15637207031250000000000000000000e+00	1.46845912933349609375000000000000e+00	3
2.55200195312500000000000000000000e+00	1.59749865531921386718750000000000e+00	3
2.20632934570312500000000000000000e+00	1.48537182807922363281250000000000e+00	3
1.42019653320312500000000000000000e+00	1.19172000885009765625000000000000e+00	3
3.73596954345703125000000000000000e+00	1.93286561965942382812500000000000e+00	3
4.03407287597656250000000000000000e+00	2.00850009918212890625000000000000e+00	3
3.66522979736328125000000000000000e+00	1.91447901725769042968750000000000e+00	3
2.89881896972656250000000000000000e+00	1.70259189605712890625000000000000e+00	3
1.79004669189453125000000000000000e+00	1.33792626857757568359375000000000e+00	3
2.54669189453125000000000000000000e+00	1.59583580493927001953125000000000e+00	3
1.48281860351562500000000000000000e+00	1.21771037578582763671875000000000e+00	3
1.17801666259765625000000000000000e+00	1.08536481857299804687500000000000e+00	3
3.19204711914062500000000000000000e+00	1.78663015365600585937500000000000e+00	3
4.02590942382812500000000000000000e+00	2.00646686553955078125000000000000e+00	3
3.71799468994140625000000000000000e+00	1.92821025848388671875000000000000e+00	3
2.92639923095703125000000000000000e+00	1.71067214012145996093750000000000e+00	3
1.86157226562500000000000000000000e+00	1.36439442634582519531250000000000e+00	3
1.13000488281250000000000000000000e+00	1.06301689147949218750000000000000e+00	3
2.60928344726562500000000000000000e+00	1.61532771587371826171875000000000e+00	3
1.11505126953125000000000000000000e+00	1.05595993995666503906250000000000e+00	3
4.93945312500000000000000000000000e+00	2.22248816490173339843750000000000e+00	3
2.44830322265625000000000000000000e+00	1.56470549106597900390625000000000e+00	3
1.16320800781250000000000000000000e+00	1.07852125167846679687500000000000e+00	3
